; Engine configuration file.
; It's best edited using the editor UI and not directly,
; since the parameters that go here are not all obvious.
;
; Format:
;   [section] ; section goes between []
;   param=value ; assign values to parameters

config_version=4

[application]

config/name="brackeys-jam-2021"
run/main_scene="res://Scenes/MainMenu.tscn"
config/icon="res://icon.png"

[autoload]

global="*res://Scripts/global.gd"

[display]

window/size/width=352
window/size/height=352
window/size/test_width=704
window/size/test_height=704
window/stretch/mode="2d"
window/stretch/aspect="keep"

[input]

restart_level={
"deadzone": 0.5,
"events": [ Object(InputEventKey,"resource_local_to_scene":false,"resource_name":"","device":0,"alt":false,"shift":false,"control":false,"meta":false,"command":false,"pressed":false,"scancode":82,"unicode":0,"echo":false,"script":null)
 ]
}

[physics]

common/enable_pause_aware_picking=true

[rendering]

environment/default_environment="res://default_env.tres"
